…
```

## The New Dataset

```{r}
diets_sankey <-
  pivot_stages_longer(
    data        = diets,
    stages_from = c("fav_food", "diet"),
    values_from = "num_people",
    additional_aes_from = "food_type")
```

```{.r code-line-numbers="4-5|6-7"}
# A tibble: 42 × 6
   food_type   num_people edge_id connector node       stage   
   <chr>            <dbl>   <int> <chr>     <fct>      <fct>   
 1 Plant/Fungi         15       1 from      Potato     fav_food
 2 Plant/Fungi         15       1 to        None       diet    
 3 Plant/Fungi         50       2 from      Potato     fav_food
 4 Plant/Fungi         50       2 to        Vegetarian diet    
 5 Plant/Fungi         40       3 from      Potato     fav_food
 6 Plant/Fungi         40       3 to        Dairy Free diet    
 7 Meat                75       4 from      Steak      fav_food
 8 Meat                75       4 to        None       diet    
 9 Meat                NA       5 from      Steak      fav_food
10 Meat                NA       5 to        Vegetarian diet    
# ℹ 32 more rows
# ℹ Use `print(n = ...)` to see more rows
```
…
